rhdl/adder.vcd
$timescale 1 ps $end
$scope module uut $end
$var wire 1 ! clock $end
$var wire 1 " reset $end
$var wire 32 # cnt $end
$scope module cnt_reg $end
$var wire 8 $ d $end
$var wire 8 % q $end
$var wire 1 & clock $end
$upscope $end
$scope module ram $end
$var wire 8 ' read_address $end
$var wire 1 ( read_clock $end
$var wire 32 ) read_data $end
$var wire 8 * write_address $end
$var wire 1 + write_clock $end
$var wire 32 , write_data $end
$var wire 1 - write_enable $end
$upscope $end
$upscope $end
$enddefinitions $end
$dumpvars
0!
1"
b00000000000000000000000000000000 #
b00000000 $
b00000000 %
0&
b00000000 '
0(
b00000000000000000000000000000000 )
b00000000 *
0+
b00000000000000000000000000000000 ,
0-
$end
#5000
1!
1&
1(
1+
#5000
#10000
0!
0&
0(
0+
#10000
#15000
1!
1&
1(
1+
#15000
#20000
0!
0&
0(
0+
#20000
#25000
1!
1&
1(
1+
#25000
#30000
0!
0&
0(
0+
#30000
#35000
1!
1&
1(
1+
#35000
#40000
0!
0&
0(
0+
#40000
#45000
1!
1&
1(
1+
#45000
#50000
0!
0&
0(
0+
#50000
0"
b00000001 $
#55000
1!
b00000010 $
b00000001 %
1&
1(
1+
#55000
#60000
0!
0&
0(
0+
#60000
#65000
1!
b00000011 $
b00000010 %
1&
1(
1+
#65000
#70000
0!
0&
0(
0+
#70000
#75000
1!
b00000100 $
b00000011 %
1&
1(
1+
#75000
#80000
0!
0&
0(
0+
#80000
#85000
1!
b00000101 $
b00000100 %
1&
1(
1+
#85000
#90000
0!
0&
0(
0+
#90000
#95000
1!
b00000110 $
b00000101 %
1&
1(
1+
#95000
#100000
0!
0&
0(
0+
#100000
#105000
1!
b00000111 $
b00000110 %
1&
1(
1+
#105000
#110000
0!
0&
0(
0+
#110000
#115000
1!
b00001000 $
b00000111 %
1&
1(
1+
#115000
#120000
0!
0&
0(
0+
#120000
#125000
1!
b00001001 $
b00001000 %
1&
1(
1+
#125000
#130000
0!
0&
0(
0+
#130000
#135000
1!
b00001010 $
b00001001 %
1&
1(
1+
#135000
#140000
0!
0&
0(
0+
#140000
#145000
1!
b00001011 $
b00001010 %
1&
1(
1+
#145000
#150000
0!
0&
0(
0+
#150000
#155000
1!
b00001100 $
b00001011 %
1&
1(
1+
#155000
#160000
0!
0&
0(
0+
#160000
#165000
1!
b00001101 $
b00001100 %
1&
1(
1+
#165000
#170000
0!
0&
0(
0+
#170000
#175000
1!
b00001110 $
b00001101 %
1&
1(
1+
#175000
#180000
0!
0&
0(
0+
#180000
#185000
1!
b00001111 $
b00001110 %
1&
1(
1+
#185000
#190000
0!
0&
0(
0+
#190000
#195000
1!
b00010000 $
b00001111 %
1&
1(
b00000001 *
1+
b10101111111111100001001000110100 ,
1-
#195000
#200000
0!
0&
0(
0+
#200000
#205000
1!
b00010001 $
b00010000 %
1&
1(
b00000000 *
1+
b00000000000000000000000000000000 ,
0-
#205000
#210000
0!
0&
0(
0+
#210000
#215000
1!
b00010010 $
b00010001 %
1&
1(
1+
#215000
#220000
0!
0&
0(
0+
#220000
#225000
1!
b00010011 $
b00010010 %
1&
1(
1+
#225000
#230000
0!
0&
0(
0+
#230000
#235000
1!
b00010100 $
b00010011 %
1&
b00000001 '
1(
1+
#235000
#240000
0!
0&
0(
0+
#240000
#245000
1!
b10101111111111100001001000110100 #
b00010101 $
b00010100 %
1&
b00000000 '
1(
b10101111111111100001001000110100 )
1+
#245000
#250000
0!
0&
0(
0+
#250000
#255000
1!
b00000000000000000000000000000000 #
b00010110 $
b00010101 %
1&
1(
b00000000000000000000000000000000 )
1+
#255000
#260000
0!
0&
0(
0+
#260000
#265000
1!
b00010111 $
b00010110 %
1&
1(
1+
#265000
#270000
0!
0&
0(
0+
#270000
#275000
1!
b00011000 $
b00010111 %
1&
1(
1+
#275000
#280000
0!
0&
0(
0+
#280000
#285000
1!
b00011001 $
b00011000 %
1&
1(
1+
#285000
#290000
0!
0&
0(
0+
#290000
#295000
1!
b00011010 $
b00011001 %
1&
1(
1+
